<?xml version="1.0" encoding="UTF-8"?>
<glyph name="circumflexhookcomb" format="1">
  <advance width="1032"/>
  <outline>
    <contour>
      <point x="418" y="1475" type="line"/>
      <point x="338" y="1475" type="line"/>
      <point x="96" y="1258" type="line"/>
      <point x="98" y="1252" type="line"/>
      <point x="174" y="1252" type="line"/>
      <point x="377" y="1438" type="line"/>
      <point x="582" y="1252" type="line"/>
      <point x="658" y="1252" type="line"/>
      <point x="660" y="1258" type="line"/>
    </contour>
    <contour>
      <point x="661" y="1368" type="line"/>
      <point x="661" y="1461" type="line"/>
      <point x="775.6666666666667" y="1469.0"/>
      <point x="810.0" y="1484.6666666666665"/>
      <point x="810" y="1542" type="curve" smooth="yes"/>
      <point x="810.0" y="1604.6666666666665"/>
      <point x="729.3333333333333" y="1629.0"/>
      <point x="624" y="1629" type="curve"/>
      <point x="629" y="1684" type="line"/>
      <point x="771.6666666666667" y="1684.0"/>
      <point x="871.0" y="1631.6666666666665"/>
      <point x="871" y="1549" type="curve" smooth="yes"/>
      <point x="871.0" y="1462.3333333333335"/>
      <point x="807.0" y="1420.0"/>
      <point x="707" y="1412" type="curve"/>
      <point x="707" y="1368" type="line"/>
    </contour>
  </outline>
</glyph>
