<?xml version="1.0" encoding="UTF-8"?>
<glyph name="dieresis" format="1">
  <advance width="956"/>
  <unicode hex="00A8"/>
  <outline>
    <contour>
      <point x="726" y="1318" type="line"/>
      <point x="654" y="1318" type="line"/>
      <point x="654" y="1456" type="line"/>
      <point x="726" y="1456" type="line"/>
    </contour>
    <contour>
      <point x="257" y="1318" type="line"/>
      <point x="184" y="1318" type="line"/>
      <point x="184" y="1456" type="line"/>
      <point x="257" y="1456" type="line"/>
    </contour>
  </outline>
  <lib>
    <dict>
      <key>com.typemytype.robofont.layerData</key>
      <dict>
        <key>mask</key>
        <dict>
          <key>anchors</key>
          <array>
          </array>
          <key>components</key>
          <array>
          </array>
          <key>contours</key>
          <array>
            <dict>
              <key>points</key>
              <array>
                <dict>
                  <key>segmentType</key>
                  <string>line</string>
                  <key>smooth</key>
                  <false/>
                  <key>x</key>
                  <integer>758</integer>
                  <key>y</key>
                  <integer>1338</integer>
                </dict>
                <dict>
                  <key>segmentType</key>
                  <string>line</string>
                  <key>smooth</key>
                  <false/>
                  <key>x</key>
                  <integer>622</integer>
                  <key>y</key>
                  <integer>1338</integer>
                </dict>
                <dict>
                  <key>segmentType</key>
                  <string>line</string>
                  <key>smooth</key>
                  <false/>
                  <key>x</key>
                  <integer>622</integer>
                  <key>y</key>
                  <integer>1456</integer>
                </dict>
                <dict>
                  <key>segmentType</key>
                  <string>line</string>
                  <key>smooth</key>
                  <false/>
                  <key>x</key>
                  <integer>758</integer>
                  <key>y</key>
                  <integer>1456</integer>
                </dict>
              </array>
            </dict>
            <dict>
              <key>points</key>
              <array>
                <dict>
                  <key>segmentType</key>
                  <string>line</string>
                  <key>smooth</key>
                  <false/>
                  <key>x</key>
                  <integer>289</integer>
                  <key>y</key>
                  <integer>1338</integer>
                </dict>
                <dict>
                  <key>segmentType</key>
                  <string>line</string>
                  <key>smooth</key>
                  <false/>
                  <key>x</key>
                  <integer>152</integer>
                  <key>y</key>
                  <integer>1338</integer>
                </dict>
                <dict>
                  <key>segmentType</key>
                  <string>line</string>
                  <key>smooth</key>
                  <false/>
                  <key>x</key>
                  <integer>152</integer>
                  <key>y</key>
                  <integer>1456</integer>
                </dict>
                <dict>
                  <key>segmentType</key>
                  <string>line</string>
                  <key>smooth</key>
                  <false/>
                  <key>x</key>
                  <integer>289</integer>
                  <key>y</key>
                  <integer>1456</integer>
                </dict>
              </array>
            </dict>
          </array>
          <key>lib</key>
          <dict>
          </dict>
          <key>name</key>
          <string>dieresis</string>
          <key>unicodes</key>
          <array>
          </array>
          <key>width</key>
          <integer>956</integer>
        </dict>
      </dict>
      <key>com.typemytype.robofont.mark</key>
      <array>
        <real>1.0</real>
        <real>0.1703</real>
        <real>0.1669</real>
        <real>0.8287</real>
      </array>
    </dict>
  </lib>
</glyph>
