<?xml version="1.0" encoding="UTF-8"?>
<glyph name="Epsilontonos" format="1">
  <advance width="1370"/>
  <unicode hex="0388"/>
  <outline>
    <component base=".ttfautohint"/>
    <component base="E" xOffset="100"/>
    <component base="tonos" xOffset="-208" yOffset="1"/>
  </outline>
</glyph>
