<?xml version="1.0" encoding="UTF-8"?>
<glyph name="emacron" format="1">
  <advance width="1104"/>
  <unicode hex="0113"/>
  <outline>
    <component base=".ttfautohint" xOffset="112"/>
    <component base="e"/>
    <component base="firsttonechinese" xOffset="112" yOffset="9"/>
  </outline>
</glyph>
