<?xml version="1.0" encoding="UTF-8"?>
<glyph name="ntilde" format="1">
  <advance width="1320"/>
  <unicode hex="00F1"/>
  <outline>
    <component base=".ttfautohint" xOffset="89"/>
    <component base="n"/>
    <component base="tilde" xOffset="220" yOffset="7"/>
  </outline>
</glyph>
