<?xml version="1.0" encoding="UTF-8"?>
<glyph name="zdotaccent" format="1">
  <advance width="1077"/>
  <unicode hex="017C"/>
  <outline>
    <component base=".ttfautohint" xOffset="120"/>
    <component base="z"/>
    <component base="dotaccent" xOffset="326" yOffset="-22"/>
  </outline>
</glyph>
