<?xml version="1.0" encoding="UTF-8"?>
<glyph name="Acircumflex" format="1">
  <advance width="1485"/>
  <unicode hex="00C2"/>
  <outline>
    <component base=".ttfautohint" xOffset="55"/>
    <component base="A"/>
    <component base="circumflex" xOffset="355" yOffset="341"/>
  </outline>
</glyph>
