<?xml version="1.0" encoding="UTF-8"?>
<glyph name="Alphatonos" format="1">
  <advance width="1485"/>
  <unicode hex="0386"/>
  <outline>
    <component base=".ttfautohint" xOffset="55"/>
    <component base="A"/>
    <component base="tonos" xOffset="24"/>
  </outline>
</glyph>
