<?xml version="1.0" encoding="UTF-8"?>
<glyph name="Ccircumflex.smcp" format="1">
  <advance width="1148"/>
  <outline>
    <component base=".ttfautohint" xOffset="115"/>
    <component base="C.smcp"/>
    <component base="circumflex" xOffset="195" yOffset="36"/>
  </outline>
</glyph>
