<?xml version="1.0" encoding="UTF-8"?>
<glyph name="Jcircumflex.smcp" format="1">
  <advance width="1076"/>
  <outline>
    <component base=".ttfautohint" xOffset="60"/>
    <component base="J.smcp"/>
    <component base="circumflex" xOffset="392" yOffset="3"/>
  </outline>
</glyph>
