<?xml version="1.0" encoding="UTF-8"?>
<glyph name="Obreve" format="1">
  <advance width="1468"/>
  <unicode hex="014E"/>
  <outline>
    <component base=".ttfautohint" xOffset="106"/>
    <component base="O"/>
    <component base="breve" xOffset="317" yOffset="389"/>
  </outline>
</glyph>
