<?xml version="1.0" encoding="UTF-8"?>
<glyph name="uniFB03" format="1">
  <advance width="1934"/>
  <unicode hex="FB03"/>
  <outline>
    <component base=".ttfautohint" xOffset="80"/>
    <component base="f"/>
    <component base="fi" xOffset="725"/>
  </outline>
</glyph>
