<?xml version="1.0" encoding="UTF-8"?>
<glyph name="acircumflex" format="1">
  <advance width="1128"/>
  <unicode hex="00E2"/>
  <outline>
    <component base=".ttfautohint" xOffset="104"/>
    <component base="a"/>
    <component base="circumflex" xOffset="146" yOffset="11"/>
  </outline>
</glyph>
