<?xml version="1.0" encoding="UTF-8"?>
<glyph name="onesuperior" format="1">
  <advance width="547"/>
  <unicode hex="00B9"/>
  <outline>
    <contour>
      <point x="396" y="665" type="line"/>
      <point x="222" y="665" type="line"/>
      <point x="222" y="1320" type="line"/>
      <point x="95" y="1320" type="line"/>
      <point x="95" y="1454" type="line"/>
      <point x="396" y="1477" type="line"/>
    </contour>
  </outline>
</glyph>
