<?xml version="1.0" encoding="UTF-8"?>
<glyph name="P" format="1">
  <advance width="1297"/>
  <unicode hex="0050"/>
  <outline>
    <contour>
      <point x="750" y="1456" type="line" smooth="yes"/>
      <point x="1061" y="1456"/>
      <point x="1242" y="1281"/>
      <point x="1242" y="1020" type="curve" smooth="yes"/>
      <point x="1242" y="756"/>
      <point x="1061" y="584"/>
      <point x="750" y="584" type="curve" smooth="yes"/>
      <point x="441" y="584" type="line"/>
      <point x="441" y="154" type="line"/>
      <point x="604" y="126" type="line"/>
      <point x="604" y="0" type="line"/>
      <point x="81" y="0" type="line"/>
      <point x="81" y="126" type="line"/>
      <point x="244" y="154" type="line"/>
      <point x="244" y="1301" type="line"/>
      <point x="81" y="1329" type="line"/>
      <point x="81" y="1456" type="line"/>
      <point x="244" y="1456" type="line"/>
    </contour>
    <contour>
      <point x="441" y="738" type="line"/>
      <point x="750" y="738" type="line" smooth="yes"/>
      <point x="947" y="738"/>
      <point x="1045" y="857"/>
      <point x="1045" y="1018" type="curve" smooth="yes"/>
      <point x="1045" y="1179"/>
      <point x="947" y="1301"/>
      <point x="750" y="1301" type="curve" smooth="yes"/>
      <point x="441" y="1301" type="line"/>
    </contour>
  </outline>
  <lib>
    <dict>
      <key>com.typemytype.robofont.mark</key>
      <array>
        <real>1.0</real>
        <real>0.1703</real>
        <real>0.1669</real>
        <real>0.8287</real>
      </array>
    </dict>
  </lib>
</glyph>
