<?xml version="1.0" encoding="UTF-8"?>
<glyph name="Ucircumflex" format="1">
  <advance width="1541"/>
  <unicode hex="00DB"/>
  <outline>
    <component base=".ttfautohint" xOffset="60"/>
    <component base="U"/>
    <component base="circumflex" xOffset="343" yOffset="335"/>
  </outline>
</glyph>
