<?xml version="1.0" encoding="UTF-8"?>
<glyph name="v" format="1">
  <advance width="1206"/>
  <unicode hex="0076"/>
  <outline>
    <contour>
      <point x="480" y="955" type="line"/>
      <point x="339" y="935" type="line"/>
      <point x="579" y="319" type="line"/>
      <point x="607" y="232" type="line"/>
      <point x="613" y="232" type="line"/>
      <point x="645" y="319" type="line"/>
      <point x="868" y="935" type="line"/>
      <point x="723" y="955" type="line"/>
      <point x="723" y="1082" type="line"/>
      <point x="1176" y="1082" type="line"/>
      <point x="1176" y="955" type="line"/>
      <point x="1062" y="940" type="line"/>
      <point x="696" y="0" type="line"/>
      <point x="523" y="0" type="line"/>
      <point x="138" y="940" type="line"/>
      <point x="26" y="955" type="line"/>
      <point x="26" y="1082" type="line"/>
      <point x="480" y="1082" type="line"/>
    </contour>
  </outline>
  <lib>
    <dict>
      <key>com.typemytype.robofont.layerData</key>
      <dict>
        <key>mask</key>
        <dict>
          <key>anchors</key>
          <array>
          </array>
          <key>components</key>
          <array>
          </array>
          <key>contours</key>
          <array>
            <dict>
              <key>points</key>
              <array>
                <dict>
                  <key>segmentType</key>
                  <string>line</string>
                  <key>smooth</key>
                  <false/>
                  <key>x</key>
                  <integer>477</integer>
                  <key>y</key>
                  <integer>955</integer>
                </dict>
                <dict>
                  <key>segmentType</key>
                  <string>line</string>
                  <key>smooth</key>
                  <false/>
                  <key>x</key>
                  <integer>347</integer>
                  <key>y</key>
                  <integer>935</integer>
                </dict>
                <dict>
                  <key>segmentType</key>
                  <string>line</string>
                  <key>smooth</key>
                  <false/>
                  <key>x</key>
                  <integer>570</integer>
                  <key>y</key>
                  <integer>319</integer>
                </dict>
                <dict>
                  <key>segmentType</key>
                  <string>line</string>
                  <key>smooth</key>
                  <false/>
                  <key>x</key>
                  <integer>588</integer>
                  <key>y</key>
                  <integer>241</integer>
                </dict>
                <dict>
                  <key>segmentType</key>
                  <string>line</string>
                  <key>smooth</key>
                  <false/>
                  <key>x</key>
                  <integer>594</integer>
                  <key>y</key>
                  <integer>241</integer>
                </dict>
                <dict>
                  <key>segmentType</key>
                  <string>line</string>
                  <key>smooth</key>
                  <false/>
                  <key>x</key>
                  <integer>613</integer>
                  <key>y</key>
                  <integer>319</integer>
                </dict>
                <dict>
                  <key>segmentType</key>
                  <string>line</string>
                  <key>smooth</key>
                  <false/>
                  <key>x</key>
                  <integer>829</integer>
                  <key>y</key>
                  <integer>935</integer>
                </dict>
                <dict>
                  <key>segmentType</key>
                  <string>line</string>
                  <key>smooth</key>
                  <false/>
                  <key>x</key>
                  <integer>698</integer>
                  <key>y</key>
                  <integer>955</integer>
                </dict>
                <dict>
                  <key>segmentType</key>
                  <string>line</string>
                  <key>smooth</key>
                  <false/>
                  <key>x</key>
                  <integer>698</integer>
                  <key>y</key>
                  <integer>1082</integer>
                </dict>
                <dict>
                  <key>segmentType</key>
                  <string>line</string>
                  <key>smooth</key>
                  <false/>
                  <key>x</key>
                  <integer>1116</integer>
                  <key>y</key>
                  <integer>1082</integer>
                </dict>
                <dict>
                  <key>segmentType</key>
                  <string>line</string>
                  <key>smooth</key>
                  <false/>
                  <key>x</key>
                  <integer>1116</integer>
                  <key>y</key>
                  <integer>955</integer>
                </dict>
                <dict>
                  <key>segmentType</key>
                  <string>line</string>
                  <key>smooth</key>
                  <false/>
                  <key>x</key>
                  <integer>1027</integer>
                  <key>y</key>
                  <integer>940</integer>
                </dict>
                <dict>
                  <key>segmentType</key>
                  <string>line</string>
                  <key>smooth</key>
                  <false/>
                  <key>x</key>
                  <integer>664</integer>
                  <key>y</key>
                  <integer>0</integer>
                </dict>
                <dict>
                  <key>segmentType</key>
                  <string>line</string>
                  <key>smooth</key>
                  <false/>
                  <key>x</key>
                  <integer>515</integer>
                  <key>y</key>
                  <integer>0</integer>
                </dict>
                <dict>
                  <key>segmentType</key>
                  <string>line</string>
                  <key>smooth</key>
                  <false/>
                  <key>x</key>
                  <integer>148</integer>
                  <key>y</key>
                  <integer>940</integer>
                </dict>
                <dict>
                  <key>segmentType</key>
                  <string>line</string>
                  <key>smooth</key>
                  <false/>
                  <key>x</key>
                  <integer>59</integer>
                  <key>y</key>
                  <integer>955</integer>
                </dict>
                <dict>
                  <key>segmentType</key>
                  <string>line</string>
                  <key>smooth</key>
                  <false/>
                  <key>x</key>
                  <integer>59</integer>
                  <key>y</key>
                  <integer>1082</integer>
                </dict>
                <dict>
                  <key>segmentType</key>
                  <string>line</string>
                  <key>smooth</key>
                  <false/>
                  <key>x</key>
                  <integer>477</integer>
                  <key>y</key>
                  <integer>1082</integer>
                </dict>
              </array>
            </dict>
          </array>
          <key>lib</key>
          <dict>
          </dict>
          <key>name</key>
          <string>v</string>
          <key>unicodes</key>
          <array>
          </array>
          <key>width</key>
          <integer>1206</integer>
        </dict>
      </dict>
      <key>com.typemytype.robofont.mark</key>
      <array>
        <real>1.0</real>
        <real>0.1703</real>
        <real>0.1669</real>
        <real>0.8287</real>
      </array>
    </dict>
  </lib>
</glyph>
