<?xml version="1.0" encoding="UTF-8"?>
<glyph name="careof" format="1">
  <advance width="1427"/>
  <unicode hex="2105"/>
  <outline>
    <contour>
      <point x="641" y="1064" type="line"/>
      <point x="643" y="1058" type="line"/>
      <point x="648.3333333333333" y="915.3333333333333"/>
      <point x="540.3333333333333" y="800.0"/>
      <point x="355" y="800" type="curve" smooth="yes"/>
      <point x="167.0" y="800.0"/>
      <point x="57.0" y="927.0"/>
      <point x="57" y="1099" type="curve" smooth="yes"/>
      <point x="57" y="1176" type="line" smooth="yes"/>
      <point x="57.0" y="1348.0"/>
      <point x="166.33333333333337" y="1477.0"/>
      <point x="353" y="1477" type="curve" smooth="yes"/>
      <point x="539.6666666666666" y="1477.0"/>
      <point x="648.3333333333333" y="1361.0"/>
      <point x="643" y="1217" type="curve"/>
      <point x="641" y="1211" type="line"/>
      <point x="456" y="1211" type="line"/>
      <point x="456.0" y="1265.6666666666665"/>
      <point x="418.33333333333337" y="1315.0"/>
      <point x="353" y="1315" type="curve" smooth="yes"/>
      <point x="286.33333333333337" y="1315.0"/>
      <point x="250.0" y="1253.3333333333335"/>
      <point x="250" y="1176" type="curve" smooth="yes"/>
      <point x="250" y="1099" type="line" smooth="yes"/>
      <point x="250.0" y="1021.6666666666664"/>
      <point x="287.0000000000001" y="962.0"/>
      <point x="355" y="962" type="curve" smooth="yes"/>
      <point x="419.0" y="962.0"/>
      <point x="456.0" y="1010.6666666666665"/>
      <point x="456" y="1064" type="curve"/>
    </contour>
    <contour>
      <point x="747" y="280" type="line" smooth="yes"/>
      <point x="747.0" y="108.0"/>
      <point x="866.0" y="-20.0"/>
      <point x="1066" y="-20" type="curve" smooth="yes"/>
      <point x="1264.6666666666665" y="-20.0"/>
      <point x="1381.0" y="106.66666666666669"/>
      <point x="1381" y="280" type="curve" smooth="yes"/>
      <point x="1381" y="357" type="line" smooth="yes"/>
      <point x="1381.0" y="529.0"/>
      <point x="1264.0" y="657.0"/>
      <point x="1064" y="657" type="curve" smooth="yes"/>
      <point x="865.3333333333333" y="657.0"/>
      <point x="747.0" y="527.6666666666666"/>
      <point x="747" y="357" type="curve" smooth="yes"/>
    </contour>
    <contour>
      <point x="941" y="357" type="line" smooth="yes"/>
      <point x="941.0" y="433.0"/>
      <point x="984.0" y="495.0"/>
      <point x="1064" y="495" type="curve" smooth="yes"/>
      <point x="1142.6666666666665" y="495.0"/>
      <point x="1187.0" y="433.0"/>
      <point x="1187" y="357" type="curve" smooth="yes"/>
      <point x="1187" y="280" type="line" smooth="yes"/>
      <point x="1187.0" y="196.0"/>
      <point x="1154.0" y="142.0"/>
      <point x="1066" y="142" type="curve" smooth="yes"/>
      <point x="991.3333333333335" y="142.0"/>
      <point x="941.0" y="204.0"/>
      <point x="941" y="280" type="curve" smooth="yes"/>
    </contour>
    <contour>
      <point x="1158" y="1247" type="line"/>
      <point x="1016" y="1322" type="line"/>
      <point x="305" y="184" type="line"/>
      <point x="447" y="109" type="line"/>
    </contour>
  </outline>
</glyph>
