<?xml version="1.0" encoding="UTF-8"?>
<glyph name="haabkhasian-cy" format="1">
  <advance width="1347"/>
  <unicode hex="04A9"/>
  <outline>
    <contour>
      <point x="1278" y="-24" type="line"/>
      <point x="1144.6666666666665" y="-24.0"/>
      <point x="1029.3333333333333" y="-6.666666666666664"/>
      <point x="932" y="28" type="curve"/>
      <point x="852.0" y="-4.0"/>
      <point x="760.0" y="-21.0"/>
      <point x="664" y="-21" type="curve" smooth="yes"/>
      <point x="326.66666666666674" y="-21.0"/>
      <point x="94.0" y="214.0"/>
      <point x="94" y="534" type="curve" smooth="yes"/>
      <point x="94" y="627" type="line" smooth="yes"/>
      <point x="94.0" y="900.3333333333331"/>
      <point x="268.66666666666663" y="1101.3333333333335"/>
      <point x="518" y="1096" type="curve"/>
      <point x="524" y="1094" type="line"/>
      <point x="524" y="869" type="line"/>
      <point x="448.0" y="859.6666666666667"/>
      <point x="402.0" y="766.3333333333333"/>
      <point x="402" y="629" type="curve" smooth="yes"/>
      <point x="402" y="534" type="line" smooth="yes"/>
      <point x="402.0" y="346.0"/>
      <point x="502.66666666666674" y="214.0"/>
      <point x="652" y="226" type="curve"/>
      <point x="657" y="229" type="line"/>
      <point x="591.6666666666667" y="301.0"/>
      <point x="558.0" y="412.0"/>
      <point x="558" y="536" type="curve" smooth="yes"/>
      <point x="558" y="685" type="line" smooth="yes"/>
      <point x="558.0" y="925.0"/>
      <point x="695.6666666666667" y="1102.0"/>
      <point x="901" y="1102" type="curve" smooth="yes"/>
      <point x="1113.0" y="1102.0"/>
      <point x="1258.0" y="906.0"/>
      <point x="1258" y="642" type="curve" smooth="yes"/>
      <point x="1258" y="499" type="line" smooth="yes"/>
      <point x="1258.0" y="365.66666666666674"/>
      <point x="1209.6666666666665" y="245.66666666666663"/>
      <point x="1123" y="155" type="curve"/>
      <point x="1169.6666666666665" y="145.66666666666669"/>
      <point x="1222.0" y="141.0"/>
      <point x="1278" y="141" type="curve"/>
    </contour>
    <contour>
      <point x="1006" y="513" type="curve" smooth="yes"/>
      <point x="1006" y="658" type="line" smooth="yes"/>
      <point x="1006" y="778"/>
      <point x="971" y="863"/>
      <point x="910" y="863" type="curve" smooth="yes"/>
      <point x="854" y="863"/>
      <point x="812" y="787"/>
      <point x="812" y="676" type="curve" smooth="yes"/>
      <point x="812" y="523" type="line" smooth="yes"/>
      <point x="812" y="428"/>
      <point x="844" y="346"/>
      <point x="904" y="289" type="curve"/>
      <point x="910" y="289" type="line"/>
      <point x="970" y="336"/>
      <point x="1006" y="418"/>
    </contour>
  </outline>
  <lib>
    <dict>
      <key>com.typemytype.robofont.layerData</key>
      <dict>
        <key>mask</key>
        <dict>
          <key>anchors</key>
          <array>
          </array>
          <key>components</key>
          <array>
          </array>
          <key>contours</key>
          <array>
            <dict>
              <key>points</key>
              <array>
                <dict>
                  <key>segmentType</key>
                  <string>line</string>
                  <key>smooth</key>
                  <false/>
                  <key>x</key>
                  <integer>1278</integer>
                  <key>y</key>
                  <integer>-24</integer>
                </dict>
                <dict>
                  <key>smooth</key>
                  <false/>
                  <key>x</key>
                  <real>1144.6666666666665</real>
                  <key>y</key>
                  <real>-24.0</real>
                </dict>
                <dict>
                  <key>smooth</key>
                  <false/>
                  <key>x</key>
                  <real>1029.3333333333333</real>
                  <key>y</key>
                  <real>-6.666666666666664</real>
                </dict>
                <dict>
                  <key>segmentType</key>
                  <string>curve</string>
                  <key>smooth</key>
                  <false/>
                  <key>x</key>
                  <integer>932</integer>
                  <key>y</key>
                  <integer>28</integer>
                </dict>
                <dict>
                  <key>smooth</key>
                  <false/>
                  <key>x</key>
                  <real>852.0</real>
                  <key>y</key>
                  <real>-4.0</real>
                </dict>
                <dict>
                  <key>smooth</key>
                  <false/>
                  <key>x</key>
                  <real>760.0</real>
                  <key>y</key>
                  <real>-21.0</real>
                </dict>
                <dict>
                  <key>segmentType</key>
                  <string>curve</string>
                  <key>smooth</key>
                  <true/>
                  <key>x</key>
                  <integer>664</integer>
                  <key>y</key>
                  <integer>-21</integer>
                </dict>
                <dict>
                  <key>smooth</key>
                  <false/>
                  <key>x</key>
                  <real>326.66666666666674</real>
                  <key>y</key>
                  <real>-21.0</real>
                </dict>
                <dict>
                  <key>smooth</key>
                  <false/>
                  <key>x</key>
                  <real>94.0</real>
                  <key>y</key>
                  <real>214.0</real>
                </dict>
                <dict>
                  <key>segmentType</key>
                  <string>curve</string>
                  <key>smooth</key>
                  <true/>
                  <key>x</key>
                  <integer>94</integer>
                  <key>y</key>
                  <integer>534</integer>
                </dict>
                <dict>
                  <key>segmentType</key>
                  <string>line</string>
                  <key>smooth</key>
                  <true/>
                  <key>x</key>
                  <integer>94</integer>
                  <key>y</key>
                  <integer>627</integer>
                </dict>
                <dict>
                  <key>smooth</key>
                  <false/>
                  <key>x</key>
                  <real>94.0</real>
                  <key>y</key>
                  <real>900.3333333333331</real>
                </dict>
                <dict>
                  <key>smooth</key>
                  <false/>
                  <key>x</key>
                  <real>268.66666666666663</real>
                  <key>y</key>
                  <real>1101.3333333333335</real>
                </dict>
                <dict>
                  <key>segmentType</key>
                  <string>curve</string>
                  <key>smooth</key>
                  <false/>
                  <key>x</key>
                  <integer>518</integer>
                  <key>y</key>
                  <integer>1096</integer>
                </dict>
                <dict>
                  <key>segmentType</key>
                  <string>line</string>
                  <key>smooth</key>
                  <false/>
                  <key>x</key>
                  <integer>524</integer>
                  <key>y</key>
                  <integer>1094</integer>
                </dict>
                <dict>
                  <key>segmentType</key>
                  <string>line</string>
                  <key>smooth</key>
                  <false/>
                  <key>x</key>
                  <integer>524</integer>
                  <key>y</key>
                  <integer>869</integer>
                </dict>
                <dict>
                  <key>smooth</key>
                  <false/>
                  <key>x</key>
                  <real>448.0</real>
                  <key>y</key>
                  <real>859.6666666666667</real>
                </dict>
                <dict>
                  <key>smooth</key>
                  <false/>
                  <key>x</key>
                  <real>402.0</real>
                  <key>y</key>
                  <real>766.3333333333333</real>
                </dict>
                <dict>
                  <key>segmentType</key>
                  <string>curve</string>
                  <key>smooth</key>
                  <true/>
                  <key>x</key>
                  <integer>402</integer>
                  <key>y</key>
                  <integer>629</integer>
                </dict>
                <dict>
                  <key>segmentType</key>
                  <string>line</string>
                  <key>smooth</key>
                  <true/>
                  <key>x</key>
                  <integer>402</integer>
                  <key>y</key>
                  <integer>534</integer>
                </dict>
                <dict>
                  <key>smooth</key>
                  <false/>
                  <key>x</key>
                  <real>402.0</real>
                  <key>y</key>
                  <real>346.0</real>
                </dict>
                <dict>
                  <key>smooth</key>
                  <false/>
                  <key>x</key>
                  <real>502.66666666666674</real>
                  <key>y</key>
                  <real>214.0</real>
                </dict>
                <dict>
                  <key>segmentType</key>
                  <string>curve</string>
                  <key>smooth</key>
                  <false/>
                  <key>x</key>
                  <integer>652</integer>
                  <key>y</key>
                  <integer>226</integer>
                </dict>
                <dict>
                  <key>segmentType</key>
                  <string>line</string>
                  <key>smooth</key>
                  <false/>
                  <key>x</key>
                  <integer>657</integer>
                  <key>y</key>
                  <integer>229</integer>
                </dict>
                <dict>
                  <key>smooth</key>
                  <false/>
                  <key>x</key>
                  <real>591.6666666666667</real>
                  <key>y</key>
                  <real>301.0</real>
                </dict>
                <dict>
                  <key>smooth</key>
                  <false/>
                  <key>x</key>
                  <real>558.0</real>
                  <key>y</key>
                  <real>412.0</real>
                </dict>
                <dict>
                  <key>segmentType</key>
                  <string>curve</string>
                  <key>smooth</key>
                  <true/>
                  <key>x</key>
                  <integer>558</integer>
                  <key>y</key>
                  <integer>536</integer>
                </dict>
                <dict>
                  <key>segmentType</key>
                  <string>line</string>
                  <key>smooth</key>
                  <true/>
                  <key>x</key>
                  <integer>558</integer>
                  <key>y</key>
                  <integer>685</integer>
                </dict>
                <dict>
                  <key>smooth</key>
                  <false/>
                  <key>x</key>
                  <real>558.0</real>
                  <key>y</key>
                  <real>925.0</real>
                </dict>
                <dict>
                  <key>smooth</key>
                  <false/>
                  <key>x</key>
                  <real>695.6666666666667</real>
                  <key>y</key>
                  <real>1102.0</real>
                </dict>
                <dict>
                  <key>segmentType</key>
                  <string>curve</string>
                  <key>smooth</key>
                  <true/>
                  <key>x</key>
                  <integer>901</integer>
                  <key>y</key>
                  <integer>1102</integer>
                </dict>
                <dict>
                  <key>smooth</key>
                  <false/>
                  <key>x</key>
                  <real>1113.0</real>
                  <key>y</key>
                  <real>1102.0</real>
                </dict>
                <dict>
                  <key>smooth</key>
                  <false/>
                  <key>x</key>
                  <real>1258.0</real>
                  <key>y</key>
                  <real>906.0</real>
                </dict>
                <dict>
                  <key>segmentType</key>
                  <string>curve</string>
                  <key>smooth</key>
                  <true/>
                  <key>x</key>
                  <integer>1258</integer>
                  <key>y</key>
                  <integer>642</integer>
                </dict>
                <dict>
                  <key>segmentType</key>
                  <string>line</string>
                  <key>smooth</key>
                  <true/>
                  <key>x</key>
                  <integer>1258</integer>
                  <key>y</key>
                  <integer>499</integer>
                </dict>
                <dict>
                  <key>smooth</key>
                  <false/>
                  <key>x</key>
                  <real>1258.0</real>
                  <key>y</key>
                  <real>365.66666666666674</real>
                </dict>
                <dict>
                  <key>smooth</key>
                  <false/>
                  <key>x</key>
                  <real>1209.6666666666665</real>
                  <key>y</key>
                  <real>245.66666666666663</real>
                </dict>
                <dict>
                  <key>segmentType</key>
                  <string>curve</string>
                  <key>smooth</key>
                  <false/>
                  <key>x</key>
                  <integer>1123</integer>
                  <key>y</key>
                  <integer>155</integer>
                </dict>
                <dict>
                  <key>smooth</key>
                  <false/>
                  <key>x</key>
                  <real>1169.6666666666665</real>
                  <key>y</key>
                  <real>145.66666666666669</real>
                </dict>
                <dict>
                  <key>smooth</key>
                  <false/>
                  <key>x</key>
                  <real>1222.0</real>
                  <key>y</key>
                  <real>141.0</real>
                </dict>
                <dict>
                  <key>segmentType</key>
                  <string>curve</string>
                  <key>smooth</key>
                  <false/>
                  <key>x</key>
                  <integer>1278</integer>
                  <key>y</key>
                  <integer>141</integer>
                </dict>
              </array>
            </dict>
            <dict>
              <key>points</key>
              <array>
                <dict>
                  <key>segmentType</key>
                  <string>curve</string>
                  <key>smooth</key>
                  <true/>
                  <key>x</key>
                  <integer>967</integer>
                  <key>y</key>
                  <integer>513</integer>
                </dict>
                <dict>
                  <key>segmentType</key>
                  <string>line</string>
                  <key>smooth</key>
                  <true/>
                  <key>x</key>
                  <integer>967</integer>
                  <key>y</key>
                  <integer>658</integer>
                </dict>
                <dict>
                  <key>smooth</key>
                  <false/>
                  <key>x</key>
                  <integer>967</integer>
                  <key>y</key>
                  <integer>778</integer>
                </dict>
                <dict>
                  <key>smooth</key>
                  <false/>
                  <key>x</key>
                  <integer>928</integer>
                  <key>y</key>
                  <integer>868</integer>
                </dict>
                <dict>
                  <key>segmentType</key>
                  <string>curve</string>
                  <key>smooth</key>
                  <false/>
                  <key>x</key>
                  <integer>873</integer>
                  <key>y</key>
                  <integer>863</integer>
                </dict>
                <dict>
                  <key>segmentType</key>
                  <string>line</string>
                  <key>smooth</key>
                  <false/>
                  <key>x</key>
                  <integer>867</integer>
                  <key>y</key>
                  <integer>863</integer>
                </dict>
                <dict>
                  <key>smooth</key>
                  <false/>
                  <key>x</key>
                  <integer>811</integer>
                  <key>y</key>
                  <integer>868</integer>
                </dict>
                <dict>
                  <key>smooth</key>
                  <false/>
                  <key>x</key>
                  <integer>773</integer>
                  <key>y</key>
                  <integer>787</integer>
                </dict>
                <dict>
                  <key>segmentType</key>
                  <string>curve</string>
                  <key>smooth</key>
                  <true/>
                  <key>x</key>
                  <integer>773</integer>
                  <key>y</key>
                  <integer>676</integer>
                </dict>
                <dict>
                  <key>segmentType</key>
                  <string>line</string>
                  <key>smooth</key>
                  <true/>
                  <key>x</key>
                  <integer>773</integer>
                  <key>y</key>
                  <integer>523</integer>
                </dict>
                <dict>
                  <key>smooth</key>
                  <false/>
                  <key>x</key>
                  <integer>773</integer>
                  <key>y</key>
                  <integer>428</integer>
                </dict>
                <dict>
                  <key>smooth</key>
                  <false/>
                  <key>x</key>
                  <integer>805</integer>
                  <key>y</key>
                  <integer>346</integer>
                </dict>
                <dict>
                  <key>segmentType</key>
                  <string>curve</string>
                  <key>smooth</key>
                  <false/>
                  <key>x</key>
                  <integer>865</integer>
                  <key>y</key>
                  <integer>289</integer>
                </dict>
                <dict>
                  <key>segmentType</key>
                  <string>line</string>
                  <key>smooth</key>
                  <false/>
                  <key>x</key>
                  <integer>871</integer>
                  <key>y</key>
                  <integer>289</integer>
                </dict>
                <dict>
                  <key>smooth</key>
                  <false/>
                  <key>x</key>
                  <integer>931</integer>
                  <key>y</key>
                  <integer>336</integer>
                </dict>
                <dict>
                  <key>smooth</key>
                  <false/>
                  <key>x</key>
                  <integer>967</integer>
                  <key>y</key>
                  <integer>418</integer>
                </dict>
              </array>
            </dict>
          </array>
          <key>lib</key>
          <dict>
          </dict>
          <key>name</key>
          <string>haabkhasian-cy</string>
          <key>unicodes</key>
          <array>
          </array>
          <key>width</key>
          <integer>1347</integer>
        </dict>
      </dict>
    </dict>
  </lib>
</glyph>
