<?xml version="1.0" encoding="UTF-8"?>
<glyph name="lslash" format="1">
  <advance width="653"/>
  <unicode hex="0142"/>
  <outline>
    <contour>
      <point x="473" y="905" type="line"/>
      <point x="619" y="954" type="line"/>
      <point x="619" y="759" type="line"/>
      <point x="473" y="710" type="line"/>
      <point x="473" y="205" type="line"/>
      <point x="614" y="175" type="line"/>
      <point x="614" y="0" type="line"/>
      <point x="40" y="0" type="line"/>
      <point x="40" y="175" type="line"/>
      <point x="181" y="205" type="line"/>
      <point x="181" y="614" type="line"/>
      <point x="54" y="572" type="line"/>
      <point x="54" y="767" type="line"/>
      <point x="181" y="809" type="line"/>
      <point x="181" y="1354" type="line"/>
      <point x="25" y="1384" type="line"/>
      <point x="25" y="1560" type="line"/>
      <point x="473" y="1560" type="line"/>
    </contour>
  </outline>
</glyph>
