<?xml version="1.0" encoding="UTF-8"?>
<glyph name="ocircumflexdotbelow" format="1">
  <advance width="1148"/>
  <unicode hex="1ED9"/>
  <outline>
    <component base=".ttfautohint" xOffset="63"/>
    <component base="o"/>
    <component base="circumflex" xOffset="117" yOffset="7"/>
    <component base="dotbelowcomb" xOffset="337" yOffset="-2"/>
  </outline>
</glyph>
