<?xml version="1.0" encoding="UTF-8"?>
<glyph name="threequarters" format="1">
  <advance width="1635"/>
  <unicode hex="00BE"/>
  <outline>
    <component base=".ttfautohint" xOffset="73"/>
    <component base="fraction" xOffset="435" yOffset="8"/>
    <component base="four.sup" xOffset="833"/>
    <component base="three.sup" xOffset="-6" yOffset="667"/>
  </outline>
</glyph>
